[
  {
    "line": 1,
    "elements": [
      {
        "line": 3,
        "name": "Lead for CISSP completes form requesting more infomation",
        "description": "",
        "id": "submit-request-for-more-information-on-cissp;lead-for-cissp-completes-form-requesting-more-infomation",
        "type": "scenario",
        "keyword": "Scenario",
        "steps": [
          {
            "result": {
              "duration": 15668276098,
              "status": "passed"
            },
            "line": 4,
            "name": "lead has navigated to CISSP certification page",
            "match": {
              "location": "CISSPcompletesformrequestingmoreinfo.navigate_to_CISSP_form_request()"
            },
            "keyword": "Given "
          },
          {
            "result": {
              "duration": 10324137458,
              "status": "passed"
            },
            "line": 5,
            "name": "lead completes More Information CISSP form and submits",
            "match": {
              "location": "CISSPcompletesformrequestingmoreinfo.completrequest_for_more_info_CISSP_submitted()"
            },
            "keyword": "When "
          },
          {
            "result": {
              "duration": 2747392212,
              "status": "passed"
            },
            "line": 6,
            "name": "request form is sent for CISSP, lead receives Thank You message",
            "match": {
              "location": "CISSPcompletesformrequestingmoreinfo.sent_request_for_more_Info_CISSP_and_recieve_Thank_You_message()"
            },
            "keyword": "Then "
          }
        ]
      }
    ],
    "name": "Submit request for more information on CISSP",
    "description": "",
    "id": "submit-request-for-more-information-on-cissp",
    "keyword": "Feature",
    "uri": "C:/Users/tmack/git/Web/Include/features/Functional/CISSPcompletesformrequestingmoreinfo.feature",
    "tags": []
  }
]