Suite/Test/Step Name,Browser,Description,Start time,End time,Duration,Status
SignIn,Firefox 62.0,,2018-10-10 20:01:18,2018-10-10 20:01:44,26.250s,PASSED
,,,,,,
Test Cases/SignInSupportedBrowsers,Firefox 62.0,,2018-10-10 20:01:19,2018-10-10 20:01:44,25.326s,PASSED
openBrowser,Firefox 62.0,,2018-10-10 20:01:20,2018-10-10 20:01:27,7.787s,PASSED
navigateToUrl,Firefox 62.0,,2018-10-10 20:01:27,2018-10-10 20:01:34,6.220s,PASSED
click,Firefox 62.0,,2018-10-10 20:01:34,2018-10-10 20:01:35,1.606s,PASSED
setText,Firefox 62.0,,2018-10-10 20:01:35,2018-10-10 20:01:36,0.346s,PASSED
setEncryptedText,Firefox 62.0,,2018-10-10 20:01:36,2018-10-10 20:01:36,0.432s,PASSED
click,Firefox 62.0,,2018-10-10 20:01:36,2018-10-10 20:01:39,3.230s,PASSED
verifyTextPresent,Firefox 62.0,,2018-10-10 20:01:39,2018-10-10 20:01:42,3.030s,PASSED
click,Firefox 62.0,,2018-10-10 20:01:42,2018-10-10 20:01:42,0.234s,PASSED
click,Firefox 62.0,,2018-10-10 20:01:42,2018-10-10 20:01:43,0.409s,PASSED
closeBrowser,Firefox 62.0,,2018-10-10 20:01:43,2018-10-10 20:01:44,1.463s,PASSED
