[
  {
    "line": 1,
    "elements": [
      {
        "line": 3,
        "name": "Lead for CAP completes form requesting more infomation",
        "description": "",
        "id": "submit-request-for-more-information-on-cap;lead-for-cap-completes-form-requesting-more-infomation",
        "type": "scenario",
        "keyword": "Scenario",
        "steps": [
          {
            "result": {
              "duration": 14513556070,
              "status": "passed"
            },
            "line": 4,
            "name": "lead has navigated to CAP certification page",
            "match": {
              "location": "Submit_request_for_more_information_on_CAP.Inavigate_to_CAP_form_request()"
            },
            "keyword": "Given "
          },
          {
            "result": {
              "duration": 16209967073,
              "status": "passed"
            },
            "line": 5,
            "name": "lead completes More Information CAP form and submits",
            "match": {
              "location": "Submit_request_for_more_information_on_CAP.completrequest_for_more_info_CAP_submitted()"
            },
            "keyword": "When "
          },
          {
            "result": {
              "duration": 2726774006,
              "status": "passed"
            },
            "line": 6,
            "name": "request form is sent for CAP, lead receives Thank You message",
            "match": {
              "location": "Submit_request_for_more_information_on_CAP.sent_request_for_more_Info_CAP_and_recieve_Thank_You_message()"
            },
            "keyword": "Then "
          }
        ]
      }
    ],
    "name": "Submit request for more information on CAP",
    "description": "",
    "id": "submit-request-for-more-information-on-cap",
    "keyword": "Feature",
    "uri": "C:/Users/tmack/git/Web/Include/features/Functional/Submit_request_for_more_information_on_CAP.feature",
    "tags": []
  }
]