Suite/Test/Step Name,Browser,Description,Start time,End time,Duration,Status
Sirecore Regression,Chrome 69.0.3497.100,,2018-10-17 15:19:35,2018-10-17 15:21:10,1m - 35.613s,PASSED
,,,,,,
Test Cases/FeatureFile,Chrome 69.0.3497.100,,2018-10-17 15:19:35,2018-10-17 15:21:10,1m - 35.056s,PASSED
runFeatureFile,Chrome 69.0.3497.100,,2018-10-17 15:19:36,2018-10-17 15:20:00,24.115s,PASSED
runFeatureFile,Chrome 69.0.3497.100,,2018-10-17 15:20:00,2018-10-17 15:20:21,20.464s,PASSED
runFeatureFile,Chrome 69.0.3497.100,,2018-10-17 15:20:21,2018-10-17 15:20:44,23.366s,PASSED
runFeatureFile,Chrome 69.0.3497.100,,2018-10-17 15:20:44,2018-10-17 15:21:10,26.483s,PASSED
