Suite/Test/Step Name,Browser,Description,Start time,End time,Duration,Status
SignIn,Chrome 69.0.3497.100,,2018-10-11 13:47:16,2018-10-11 13:47:40,24.442s,PASSED
,,,,,,
Test Cases/FeatureFile,Chrome 69.0.3497.100,,2018-10-11 13:47:16,2018-10-11 13:47:40,23.632s,PASSED
runFeatureFile,Chrome 69.0.3497.100,,2018-10-11 13:47:17,2018-10-11 13:47:40,22.913s,PASSED
