[
  {
    "line": 1,
    "elements": [
      {
        "line": 3,
        "name": "Member is able to Sign In using supported Browsers and access portals",
        "description": "",
        "id": "sign-in-to-website;member-is-able-to-sign-in-using-supported-browsers-and-access-portals",
        "type": "scenario",
        "keyword": "Scenario",
        "steps": [
          {
            "result": {
              "duration": 24518830147,
              "status": "passed"
            },
            "line": 4,
            "name": "member has valid account and using supported browser",
            "match": {
              "location": "SignInSupportedBrowsersAccessPortals.member_has_valid_account_and_using_supported_browser()"
            },
            "keyword": "Given "
          },
          {
            "result": {
              "duration": 18493948925,
              "status": "passed"
            },
            "line": 5,
            "name": "has navigated to Website Sign In page",
            "match": {
              "location": "SignInSupportedBrowsersAccessPortals.I_navigated_to_Website_and_click_signin()"
            },
            "keyword": "And "
          },
          {
            "result": {
              "duration": 9413507112,
              "status": "passed"
            },
            "line": 6,
            "name": "member enters Email \"QA_677700_9A60F016@Mailinator.com\" and Password \"p4y+y39Ir5PEPmX20UxFKw\u003d\u003d\"",
            "match": {
              "arguments": [
                {
                  "val": "QA_677700_9A60F016@Mailinator.com",
                  "offset": 21
                },
                {
                  "val": "p4y+y39Ir5PEPmX20UxFKw\u003d\u003d",
                  "offset": 70
                }
              ],
              "location": "SignInSupportedBrowsersAccessPortals.member_enters_vaild_Email_and_Password(String,String)"
            },
            "keyword": "When "
          },
          {
            "result": {
              "error_message": "com.kms.katalon.core.exception.StepFailedException: Unable to verify text \u0027Hi\u0027 is present  using regular expression (Root cause: Text \u0027Hi\u0027 is not present on page  using regular expression)\r\n\tat com.kms.katalon.core.keyword.internal.KeywordMain.stepFailed(KeywordMain.groovy:36)\r\n\tat com.kms.katalon.core.webui.keyword.internal.WebUIKeywordMain.stepFailed(WebUIKeywordMain.groovy:65)\r\n\tat com.kms.katalon.core.webui.keyword.internal.WebUIKeywordMain.runKeyword(WebUIKeywordMain.groovy:27)\r\n\tat com.kms.katalon.core.webui.keyword.builtin.VerifyTextPresentKeyword.verifyTextPresent(VerifyTextPresentKeyword.groovy:83)\r\n\tat com.kms.katalon.core.webui.keyword.builtin.VerifyTextPresentKeyword.execute(VerifyTextPresentKeyword.groovy:68)\r\n\tat com.kms.katalon.core.keyword.internal.KeywordExecutor.executeKeywordForPlatform(KeywordExecutor.groovy:53)\r\n\tat com.kms.katalon.core.webui.keyword.WebUiBuiltInKeywords.verifyTextPresent(WebUiBuiltInKeywords.groovy:1693)\r\n\tat com.kms.katalon.core.webui.keyword.WebUiBuiltInKeywords$verifyTextPresent$4.call(Unknown Source)\r\n\tat org.codehaus.groovy.runtime.callsite.CallSiteArray.defaultCall(CallSiteArray.java:48)\r\n\tat org.codehaus.groovy.runtime.callsite.AbstractCallSite.call(AbstractCallSite.java:113)\r\n\tat org.codehaus.groovy.runtime.callsite.AbstractCallSite.call(AbstractCallSite.java:133)\r\n\tat functional.SignInSupportedBrowsersAccessPortals.member_gains_access_to_system_portals(SignInSupportedBrowsersAccessPortals.groovy:76)\r\n\tat ✽.member gains access to member portals(C:/Users/tmack/git/webbitbucketqanew/Include/features/Functional/SignInSupportedBrowsersAccessPortals.feature:7)\r\n",
              "duration": 10243916207,
              "status": "failed"
            },
            "line": 7,
            "name": "member gains access to member portals",
            "match": {
              "location": "SignInSupportedBrowsersAccessPortals.member_gains_access_to_system_portals()"
            },
            "keyword": "Then "
          }
        ]
      }
    ],
    "name": "Sign In to Website",
    "description": "",
    "id": "sign-in-to-website",
    "keyword": "Feature",
    "uri": "C:/Users/tmack/git/webbitbucketqanew/Include/features/Functional/SignInSupportedBrowsersAccessPortals.feature",
    "tags": []
  }
]