[
  {
    "line": 1,
    "elements": [
      {
        "line": 3,
        "name": "Member is able to Sign In using supported Browsers and access portals",
        "description": "",
        "id": "sign-in-to-website;member-is-able-to-sign-in-using-supported-browsers-and-access-portals",
        "type": "scenario",
        "keyword": "Scenario",
        "steps": [
          {
            "result": {
              "duration": 7428260864,
              "status": "passed"
            },
            "line": 4,
            "name": "member has valid account and using supported browser",
            "match": {
              "location": "SignInSupportedBrowsersAccessPortals.member_has_valid_account_and_using_supported_browser()"
            },
            "keyword": "Given "
          },
          {
            "result": {
              "duration": 6427355838,
              "status": "passed"
            },
            "line": 5,
            "name": "has navigated to Website Sign In page",
            "match": {
              "location": "SignInSupportedBrowsersAccessPortals.I_navigated_to_Website_and_click_signin()"
            },
            "keyword": "And "
          },
          {
            "result": {
              "duration": 6284559413,
              "status": "passed"
            },
            "line": 6,
            "name": "member enters Email \"QA_677700_9A60F016@Mailinator.com\" and Password \"p4y+y39Ir5PEPmX20UxFKw\u003d\u003d\"",
            "match": {
              "arguments": [
                {
                  "val": "QA_677700_9A60F016@Mailinator.com",
                  "offset": 21
                },
                {
                  "val": "p4y+y39Ir5PEPmX20UxFKw\u003d\u003d",
                  "offset": 70
                }
              ],
              "location": "SignInSupportedBrowsersAccessPortals.member_enters_vaild_Email_and_Password(String,String)"
            },
            "keyword": "When "
          },
          {
            "result": {
              "duration": 4840721100,
              "status": "passed"
            },
            "line": 7,
            "name": "member gains access to member portals",
            "match": {
              "location": "SignInSupportedBrowsersAccessPortals.member_gains_access_to_system_portals()"
            },
            "keyword": "Then "
          }
        ]
      }
    ],
    "name": "Sign In to Website",
    "description": "",
    "id": "sign-in-to-website",
    "keyword": "Feature",
    "uri": "C:/Users/tmack/git/Web/Include/features/Functional/SignInSupportedBrowsersAccessPortals.feature",
    "tags": []
  }
]