Suite/Test/Step Name,Browser,Description,Start time,End time,Duration,Status
SignIn,Firefox 62.0,,2018-10-11 19:17:34,2018-10-11 19:19:46,2m - 12.509s,PASSED
,,,,,,
Test Cases/FeatureFile,Firefox 62.0,,2018-10-11 19:17:35,2018-10-11 19:17:58,23.609s,PASSED
runFeatureFile,Firefox 62.0,,2018-10-11 19:17:35,2018-10-11 19:17:58,23.182s,PASSED
,,,,,,
Test Cases/SignInSupportedBrowsers,Firefox 62.0,,2018-10-11 19:17:58,2018-10-11 19:18:19,20.584s,PASSED
openBrowser,Firefox 62.0,,2018-10-11 19:17:59,2018-10-11 19:18:04,5.054s,PASSED
navigateToUrl,Firefox 62.0,,2018-10-11 19:18:04,2018-10-11 19:18:08,3.949s,PASSED
click,Firefox 62.0,,2018-10-11 19:18:08,2018-10-11 19:18:10,2.597s,PASSED
setText,Firefox 62.0,,2018-10-11 19:18:10,2018-10-11 19:18:11,0.293s,PASSED
setEncryptedText,Firefox 62.0,,2018-10-11 19:18:11,2018-10-11 19:18:11,0.319s,PASSED
click,Firefox 62.0,,2018-10-11 19:18:11,2018-10-11 19:18:14,3.401s,PASSED
verifyTextPresent,Firefox 62.0,,2018-10-11 19:18:14,2018-10-11 19:18:17,2.479s,PASSED
click,Firefox 62.0,,2018-10-11 19:18:17,2018-10-11 19:18:17,0.464s,PASSED
click,Firefox 62.0,,2018-10-11 19:18:17,2018-10-11 19:18:18,0.444s,PASSED
closeBrowser,Firefox 62.0,,2018-10-11 19:18:18,2018-10-11 19:18:19,1.097s,PASSED
,,,,,,
Test Cases/AccountwithongEmailandDiffFormatsSignIn,Firefox 62.0,Emails with long name and different formats can Sign In to systems,2018-10-11 19:18:19,2018-10-11 19:19:46,1m - 27.563s,PASSED
"Statement - For ([row = 1, row <= com.kms.katalon.core.testdata.TestDataFactory.findTestData(EmailsInDifferntformats).getRowNumbers(), (row++)])",Firefox 62.0,,2018-10-11 19:18:19,2018-10-11 19:19:46,1m - 27.273s,PASSED
